{
    "Clients": [
        {
            "Primer_Nombre": "Daniela",
            "Primer_Apellido": "Carvajal",
            "Age": 36,
            "Estatura": 1.67
        },
        {
            "Primer_Nombre": "Juan",
            "Primer_Apellido": "Carvajal",
            "Age": 39,
            "Estatura": 1.72
        }
    ]
}