{
    "cliente": [
        {
            "firs_name": "juan",
            "documentID": "123",
            "ago": "34"
        },
        {
            "firs_name": "maria",
            "documentID": "890",
            "ago": "23"
        }
    ]
}